{
  "0x8f0Bf7DD7d235A5d784Dd68f8e14E14964418EE5": [
    {
      "admin": "0x685723B9dC89BDF28BA5F98F9A8c0aC899bD6E77",
      "maintainer": "0x685723B9dC89BDF28BA5F98F9A8c0aC899bD6E77"
    }
  ],
  "0x80d629cf2D775cB9b97c4A95Fe2269e0E8459d3A": [
    "0x8f0Bf7DD7d235A5d784Dd68f8e14E14964418EE5",
    {
      "admin": "0x685723B9dC89BDF28BA5F98F9A8c0aC899bD6E77",
      "maintainer": "0x685723B9dC89BDF28BA5F98F9A8c0aC899bD6E77"
    }
  ],
  "0x0374a0dc2F47ea75C900A63A244c3E6555b7e830": [
    {
      "admin": "0x685723B9dC89BDF28BA5F98F9A8c0aC899bD6E77",
      "maintainer": "0x685723B9dC89BDF28BA5F98F9A8c0aC899bD6E77"
    }
  ],
  "0x43a98e5C4A7F3B7f11080fc9D58b0B8A80cA954e": [
    {
      "admin": "0x685723B9dC89BDF28BA5F98F9A8c0aC899bD6E77",
      "maintainer": "0x685723B9dC89BDF28BA5F98F9A8c0aC899bD6E77"
    }
  ]
}
