{
  "42": {
    "collateralAddress": "0xe22da380ee6B445bb8273C81944ADEB6E8450422",
    "excessTokenBeneficiary": "0x49251bc21C3e3Af201F39AeEbF93474dA6a9A5E7"
  },
  "1": {
    "collateralAddress": "0xa0b86991c6218b36c1d19d4a2e9eb0ce3606eb48",
    "excessTokenBeneficiary": "0x8ef00583baa186094d9a34a0a4750c1d1bb86831"
  },
  "80001": {
    "collateralAddress": "0xdEe897d5E6eaA6365F293c37cB3fA8335B9B8f3F",
    "excessTokenBeneficiary": "0x49251bc21C3e3Af201F39AeEbF93474dA6a9A5E7"
  },
  "4": {
    "collateralAddress": "0x4DBCdF9B62e891a7cec5A2568C3F4FAF9E8Abe2b",
    "excessTokenBeneficiary": "0x49251bc21C3e3Af201F39AeEbF93474dA6a9A5E7"
  },
  "137": {
    "collateralAddress": "0x2791Bca1f2de4661ED88A30C99A7a9449Aa84174",
    "excessTokenBeneficiary": "0x8ef00583baa186094d9a34a0a4750c1d1bb86831"
  },
  "97": {
    "collateralAddress": "0x78867BbEeF44f2326bF8DDd1941a4439382EF2A7",
    "excessTokenBeneficiary": "0x49251bc21C3e3Af201F39AeEbF93474dA6a9A5E7"
  },
  "3": {
    "collateralAddress": "0xDBC941fEc34e8965EbC4A25452ae7519d6BDfc4e",
    "excessTokenBeneficiary": "0x49251bc21C3e3Af201F39AeEbF93474dA6a9A5E7"
  },
  "77": {
    "collateralAddress": "0x2AdA4F8DffaF645bC62bBf937dbA60f82Ab02e8f",
    "excessTokenBeneficiary": "0x49251bc21C3e3Af201F39AeEbF93474dA6a9A5E7"
  },
  "56": {
    "collateralAddress": "0xe9e7cea3dedca5984780bafc599bd69add087d56",
    "excessTokenBeneficiary": ""
  },
  "100": {
    "collateralAddress": "0xe91D153E0b41518A2Ce8Dd3D7944Fa863463a97d"
  },
  "250": {
    "collateralAddress": "0x04068DA6C83AFCFA0e13ba15A6696662335D5B75"
  }
}
